module gin-rest-di

go 1.13

require (
	github.com/dgrijalva/jwt-go v3.2.0+incompatible
	github.com/gin-gonic/gin v1.5.0
	github.com/go-playground/universal-translator v0.17.0 // indirect
	github.com/go-sql-driver/mysql v1.5.0 // indirect
	github.com/golang/protobuf v1.3.4 // indirect
	github.com/google/wire v0.4.0
	github.com/jinzhu/gorm v1.9.12
	github.com/json-iterator/go v1.1.9 // indirect
	github.com/leodido/go-urn v1.2.0 // indirect
	github.com/mattn/go-isatty v0.0.12 // indirect
	github.com/modern-go/concurrent v0.0.0-20180306012644-bacd9c7ef1dd // indirect
	github.com/modern-go/reflect2 v1.0.1 // indirect
	golang.org/x/sys v0.0.0-20200302150141-5c8b2ff67527 // indirect
	golang.org/x/tools v0.0.0-20200302225559-9b52d559c609 // indirect
	gopkg.in/go-playground/validator.v9 v9.31.0 // indirect
	gopkg.in/yaml.v2 v2.2.8 // indirect
)
